{
  "info": {
    "author": "Stefan Hagen",
    "author_email": "stefan@hagen.link",
    "bugtrack_url": null,
    "classifiers": [
      "Development Status :: 4 - Beta",
      "Intended Audience :: Developers",
      "License :: OSI Approved :: MIT License",
      "Programming Language :: Python :: 3.10",
      "Programming Language :: Python :: 3.8",
      "Programming Language :: Python :: 3.9",
      "Topic :: Software Development :: Build Tools"
    ],
    "description": "# puristaa\n\nPuristaa (Finnish for compress)\n\n[License: MIT](https://git.sr.ht/~sthagen/puristaa/tree/default/item/LICENSE)\n\nProvide a memory neutral and fast implementation that is clear to understand and works for the use case of extracting a common prefix of a sequence of strings and yielding that prefix and a generator for the compressed strings of the original sequence.\n\nThe latter is not yet clear. One simple implementation path is to receive a reference to a sequence, determine min-max, compare min to max by character and break with first index of enumaeration not matching. Finally yield first the prefix, subsequently all strings of the sequence each shortened by the prefix.\n\nAnother still open question is, if a composition of functions can be construed, such that the prefix finding algorithm respects a caller provided policy representing the inner structure of the strings.\n An example for an inner structure is a sequence of paths as strings. A path policy would provide a separator that modifies the prefix finding algorithm to backtrack to the previous such separator token.\n\nwhy? well, imagine the sequence `'bar/baz', 'bar/bazaar'` and a path policy providing the boolean predicate `lambda x: x == '/'` should not yield `'bar/baz', '', 'aar'` but instead `'bar/', 'baz', 'bazaar'`.\n\n[![version](https://img.shields.io/pypi/v/puristaa.svg?style=flat)](https://pypi.python.org/pypi/puristaa/)\n[![downloads](https://img.shields.io/pypi/dm/puristaa.svg?style=flat)](https://pypi.python.org/pypi/puristaa/)\n[![wheel](https://img.shields.io/pypi/wheel/puristaa.svg?style=flat)](https://pypi.python.org/pypi/puristaa/)\n[![supported-versions](https://img.shields.io/pypi/pyversions/puristaa.svg?style=flat)](https://pypi.python.org/pypi/puristaa/)\n[![supported-implementations](https://img.shields.io/pypi/implementation/puristaa.svg?style=flat)](https://pypi.python.org/pypi/puristaa/)\n\n## Documentation\n\nUser and developer [documentation of puristaa](https://codes.dilettant.life/docs/puristaa).\n\n## Bug Tracker\n\nFeature requests and bug reports are bested entered in the [todos of puristaa](https://todo.sr.ht/~sthagen/puristaa).\n\n## Primary Source repository\n\nThe primary source repository of [puristaa is at sourcehut](https://git.sr.ht/~sthagen/puristaa)\na collection of tools useful for software development.\n## Status\n\nExperimental\n\n**Note**: The default branch is `default`.\n\n# Use\n\n## Commandline API\n",
    "description_content_type": "text/markdown",
    "docs_url": null,
    "download_url": "",
    "downloads": {
      "last_day": -1,
      "last_month": -1,
      "last_week": -1
    },
    "dynamic": null,
    "home_page": "https://git.sr.ht/~sthagen/puristaa",
    "keywords": "compression,developer-tools,text-processing",
    "license": "",
    "license_expression": null,
    "license_files": null,
    "maintainer": "Stefan Hagen",
    "maintainer_email": "stefan@hagen.link",
    "name": "puristaa",
    "package_url": "https://pypi.org/project/puristaa/",
    "platform": null,
    "project_url": "https://pypi.org/project/puristaa/",
    "project_urls": {
      "Bug Tracker": "https://todo.sr.ht/~sthagen/puristaa",
      "Documentation": "https://sthagen.github.io/puristaa",
      "Homepage": "https://git.sr.ht/~sthagen/puristaa",
      "Source Code": "https://git.sr.ht/~sthagen/puristaa",
      "Test Coverage": "https://codes.dilettant.life/coverage/puristaa"
    },
    "provides_extra": null,
    "release_url": "https://pypi.org/project/puristaa/2022.7.24/",
    "requires_dist": [
      "black ; extra == 'dev'",
      "coverage ; extra == 'dev'",
      "flake8 ; extra == 'dev'",
      "mypy ; extra == 'dev'",
      "pytest ; extra == 'dev'",
      "pytest-cov ; extra == 'dev'",
      "pytest-flake8 ; extra == 'dev'"
    ],
    "requires_python": ">=3.8",
    "summary": "Puristaa (Finnish for compress) - shared prefix compression of ordered string sequences.",
    "version": "2022.7.24",
    "yanked": false,
    "yanked_reason": null
  },
  "last_serial": 14532644,
  "releases": {
    "2021.10.24": [
      {
        "comment_text": "",
        "digests": {
          "blake2b_256": "a41418eb2df6036c131f75e7547fa62e34239598da8c4ba328a64ea1993f098f",
          "md5": "2818f768eeedc33f3014402da9eab14d",
          "sha256": "8171f539acaf5024db566d222d72189daf5b0ff360208933600cab66676b836c"
        },
        "downloads": -1,
        "filename": "puristaa-2021.10.24-py2.py3-none-any.whl",
        "has_sig": false,
        "md5_digest": "2818f768eeedc33f3014402da9eab14d",
        "packagetype": "bdist_wheel",
        "python_version": "py2.py3",
        "requires_python": ">=3.8",
        "size": 6879,
        "upload_time": "2021-10-24T16:21:14",
        "upload_time_iso_8601": "2021-10-24T16:21:14.208949Z",
        "url": "https://files.pythonhosted.org/packages/a4/14/18eb2df6036c131f75e7547fa62e34239598da8c4ba328a64ea1993f098f/puristaa-2021.10.24-py2.py3-none-any.whl",
        "yanked": false,
        "yanked_reason": null
      },
      {
        "comment_text": "",
        "digests": {
          "blake2b_256": "6e250db89d9eb07fbefdef0887dace296225e06a3a2d1f919aacdf9a5b305dad",
          "md5": "f2f66bf9f6bcae59ba38d40a709d21d3",
          "sha256": "f0bbce1a682805ace42e3972f211ba8f0ba7c5db6b6f9e68fddb1541bb31a2f5"
        },
        "downloads": -1,
        "filename": "puristaa-2021.10.24.tar.gz",
        "has_sig": false,
        "md5_digest": "f2f66bf9f6bcae59ba38d40a709d21d3",
        "packagetype": "sdist",
        "python_version": "source",
        "requires_python": ">=3.8",
        "size": 6700,
        "upload_time": "2021-10-24T16:21:15",
        "upload_time_iso_8601": "2021-10-24T16:21:15.518833Z",
        "url": "https://files.pythonhosted.org/packages/6e/25/0db89d9eb07fbefdef0887dace296225e06a3a2d1f919aacdf9a5b305dad/puristaa-2021.10.24.tar.gz",
        "yanked": false,
        "yanked_reason": null
      }
    ],
    "2022.6.27": [
      {
        "comment_text": "",
        "digests": {
          "blake2b_256": "348a1ef09a22d6f507b3f83ca285a285ec37c3166f715cb253782db0abbb6bc1",
          "md5": "e55786bc708f974eead10b3b4d52483f",
          "sha256": "5218fb4019a0cb8e37b29db6c3be322c220060825121d97eaaa14ca0cb01dc03"
        },
        "downloads": -1,
        "filename": "puristaa-2022.6.27-py2.py3-none-any.whl",
        "has_sig": false,
        "md5_digest": "e55786bc708f974eead10b3b4d52483f",
        "packagetype": "bdist_wheel",
        "python_version": "py2.py3",
        "requires_python": ">=3.8",
        "size": 6818,
        "upload_time": "2022-06-27T19:14:52",
        "upload_time_iso_8601": "2022-06-27T19:14:52.445361Z",
        "url": "https://files.pythonhosted.org/packages/34/8a/1ef09a22d6f507b3f83ca285a285ec37c3166f715cb253782db0abbb6bc1/puristaa-2022.6.27-py2.py3-none-any.whl",
        "yanked": false,
        "yanked_reason": null
      },
      {
        "comment_text": "",
        "digests": {
          "blake2b_256": "4d71a5c7338809345e99bc4f59bd758d9e6d6f15f557b8c0f360a7a1c2f4028b",
          "md5": "292f5d09598583eae9dbf83929b73e48",
          "sha256": "1279d16beeecb7f061d44d599a30fa86d1b209f81b683f10ce1d607b4005e8e2"
        },
        "downloads": -1,
        "filename": "puristaa-2022.6.27.tar.gz",
        "has_sig": false,
        "md5_digest": "292f5d09598583eae9dbf83929b73e48",
        "packagetype": "sdist",
        "python_version": "source",
        "requires_python": ">=3.8",
        "size": 11738,
        "upload_time": "2022-06-27T19:14:54",
        "upload_time_iso_8601": "2022-06-27T19:14:54.317227Z",
        "url": "https://files.pythonhosted.org/packages/4d/71/a5c7338809345e99bc4f59bd758d9e6d6f15f557b8c0f360a7a1c2f4028b/puristaa-2022.6.27.tar.gz",
        "yanked": false,
        "yanked_reason": null
      }
    ],
    "2022.7.24": [
      {
        "comment_text": "",
        "digests": {
          "blake2b_256": "3136347c7efc014c3f85eca62e51576a746880e518b0c893624217f80f73f165",
          "md5": "9a9a33ddf0b2b079732d3a2ca60132dd",
          "sha256": "43afcb8d559c7c039ea172a57cb70669226c7e277a0de672809f1949ccd5a9fe"
        },
        "downloads": -1,
        "filename": "puristaa-2022.7.24-py2.py3-none-any.whl",
        "has_sig": false,
        "md5_digest": "9a9a33ddf0b2b079732d3a2ca60132dd",
        "packagetype": "bdist_wheel",
        "python_version": "py2.py3",
        "requires_python": ">=3.8",
        "size": 6916,
        "upload_time": "2022-07-24T14:52:48",
        "upload_time_iso_8601": "2022-07-24T14:52:48.668322Z",
        "url": "https://files.pythonhosted.org/packages/31/36/347c7efc014c3f85eca62e51576a746880e518b0c893624217f80f73f165/puristaa-2022.7.24-py2.py3-none-any.whl",
        "yanked": false,
        "yanked_reason": null
      },
      {
        "comment_text": "",
        "digests": {
          "blake2b_256": "e7da3be47f75c09131d2871fb7a069115df6fb1d01aa9b12620fbdccbc28bd8c",
          "md5": "3a1daacce275660a62a8aa576740b447",
          "sha256": "d725f70704417e154272dd79c3299fdc4d4c85102f0d8acf22aa32ee5c7fbf8b"
        },
        "downloads": -1,
        "filename": "puristaa-2022.7.24.tar.gz",
        "has_sig": false,
        "md5_digest": "3a1daacce275660a62a8aa576740b447",
        "packagetype": "sdist",
        "python_version": "source",
        "requires_python": ">=3.8",
        "size": 12080,
        "upload_time": "2022-07-24T14:52:50",
        "upload_time_iso_8601": "2022-07-24T14:52:50.368453Z",
        "url": "https://files.pythonhosted.org/packages/e7/da/3be47f75c09131d2871fb7a069115df6fb1d01aa9b12620fbdccbc28bd8c/puristaa-2022.7.24.tar.gz",
        "yanked": false,
        "yanked_reason": null
      }
    ]
  },
  "urls": [
    {
      "comment_text": "",
      "digests": {
        "blake2b_256": "3136347c7efc014c3f85eca62e51576a746880e518b0c893624217f80f73f165",
        "md5": "9a9a33ddf0b2b079732d3a2ca60132dd",
        "sha256": "43afcb8d559c7c039ea172a57cb70669226c7e277a0de672809f1949ccd5a9fe"
      },
      "downloads": -1,
      "filename": "puristaa-2022.7.24-py2.py3-none-any.whl",
      "has_sig": false,
      "md5_digest": "9a9a33ddf0b2b079732d3a2ca60132dd",
      "packagetype": "bdist_wheel",
      "python_version": "py2.py3",
      "requires_python": ">=3.8",
      "size": 6916,
      "upload_time": "2022-07-24T14:52:48",
      "upload_time_iso_8601": "2022-07-24T14:52:48.668322Z",
      "url": "https://files.pythonhosted.org/packages/31/36/347c7efc014c3f85eca62e51576a746880e518b0c893624217f80f73f165/puristaa-2022.7.24-py2.py3-none-any.whl",
      "yanked": false,
      "yanked_reason": null
    },
    {
      "comment_text": "",
      "digests": {
        "blake2b_256": "e7da3be47f75c09131d2871fb7a069115df6fb1d01aa9b12620fbdccbc28bd8c",
        "md5": "3a1daacce275660a62a8aa576740b447",
        "sha256": "d725f70704417e154272dd79c3299fdc4d4c85102f0d8acf22aa32ee5c7fbf8b"
      },
      "downloads": -1,
      "filename": "puristaa-2022.7.24.tar.gz",
      "has_sig": false,
      "md5_digest": "3a1daacce275660a62a8aa576740b447",
      "packagetype": "sdist",
      "python_version": "source",
      "requires_python": ">=3.8",
      "size": 12080,
      "upload_time": "2022-07-24T14:52:50",
      "upload_time_iso_8601": "2022-07-24T14:52:50.368453Z",
      "url": "https://files.pythonhosted.org/packages/e7/da/3be47f75c09131d2871fb7a069115df6fb1d01aa9b12620fbdccbc28bd8c/puristaa-2022.7.24.tar.gz",
      "yanked": false,
      "yanked_reason": null
    }
  ],
  "vulnerabilities": []
}